{
  "order_uid": "3l32v3fluv44",
  "track_number": "WBILTRACK",
  "entry": "WB__IL",
  "delivery": {
    "name": "Bob Bobov",
    "phone": "+123123123123",
    "zip": "100321",
    "city": "Moscow",
    "address": "Ploshad Mira 13",
    "region": "",
    "email": "mail@mail.ru"
  },
  "payment": {
    "transaction": "fcccxsdfw849nlai38vdxy6",
    "request_id": "0",
    "currency": "2",
    "provider": "pay",
    "amount": 1817,
    "payment_dt": 1637907727,
    "bank": "beta",
    "delivery_cost": 1500,
    "goods_total": 317,
    "custom_fee": 0
  },
  "items": [
    {
      "chrt_id": 9934930,
      "track_number": "WBILMTESTTRACK",
      "price": 453,
      "rid": "ab4219087a764ae0btest",
      "name": "Madagascar",
      "sale": 30,
      "size": "0",
      "total_price": 317,
      "nm_id": 2389212,
      "brand": "Vivienne Sabo",
      "status": 202
    }
  ],
  "locale": "en",
  "internal_signature": "ffispp",
  "customer_id": "test",
  "delivery_service": "meest",
  "shardkey": "9",
  "sm_id": 99,
  "date_created": "2021-11-26T06:22:19Z",
  "oof_shard": "1"
}
